{
    "name": "Pet",
    "fields": [
        {
            "fieldName": "name",
            "fieldType": "String"
        },
        {
            "fieldName": "dateOfBirth",
            "fieldType": "Instant"
        }
    ],
    "relationships": [
        {
            "relationshipType": "many-to-one",
            "otherEntityName": "person",
            "otherEntityRelationshipName": "pet",
            "relationshipName": "person",
            "otherEntityField": "id"
        }
    ],
    "changelogDate": "20191202104322",
    "entityTableName": "pet",
    "dto": "no",
    "pagination": "no",
    "service": "no",
    "jpaMetamodelFiltering": false,
    "fluentMethods": true,
    "readOnly": false,
    "clientRootFolder": "",
    "applications": "*"
}